EESchema Schematic File Version 4
LIBS:3V7-12V-converter-cache
EELAYER 26 0
EELAYER END
$Descr A4 11693 8268
encoding utf-8
Sheet 1 1
Title ""
Date ""
Rev ""
Comp ""
Comment1 ""
Comment2 ""
Comment3 ""
Comment4 ""
$EndDescr
$Comp
L lm2621:LM2621 U1
U 1 1 5B1D2832
P 3000 5850
F 0 "U1" H 3000 6225 60  0000 C CNN
F 1 "LM2621" H 3000 5425 60  0000 C CNN
F 2 "Package_SO:VSSOP-8_3.0x3.0mm_P0.65mm" H 3000 5850 50  0001 C CNN
F 3 "https://www.chipdip.ru/product/lm2621mm" H 3000 5850 50  0001 C CNN
	1    3000 5850
	1    0    0    -1  
$EndComp
$Comp
L power:+BATT #PWR0101
U 1 1 5B1D28DB
P 1300 4825
F 0 "#PWR0101" H 1300 4675 50  0001 C CNN
F 1 "+BATT" H 1315 4998 50  0000 C CNN
F 2 "" H 1300 4825 50  0001 C CNN
F 3 "" H 1300 4825 50  0001 C CNN
	1    1300 4825
	1    0    0    -1  
$EndComp
$Comp
L power:GND #PWR0102
U 1 1 5B1D2922
P 1300 5800
F 0 "#PWR0102" H 1300 5550 50  0001 C CNN
F 1 "GND" H 1305 5627 50  0000 C CNN
F 2 "" H 1300 5800 50  0001 C CNN
F 3 "" H 1300 5800 50  0001 C CNN
	1    1300 5800
	1    0    0    -1  
$EndComp
$Comp
L power:+12V #PWR0103
U 1 1 5B1D302E
P 4950 4825
F 0 "#PWR0103" H 4950 4675 50  0001 C CNN
F 1 "+12V" H 4965 4998 50  0000 C CNN
F 2 "" H 4950 4825 50  0001 C CNN
F 3 "" H 4950 4825 50  0001 C CNN
	1    4950 4825
	1    0    0    -1  
$EndComp
$Comp
L Device:D_Schottky D1
U 1 1 5B1D3375
P 4050 5250
F 0 "D1" H 4050 5034 50  0000 C CNN
F 1 "Schottky" H 4050 5125 50  0000 C CNN
F 2 "Diode_SMD:D_SMB_Handsoldering" H 4050 5250 50  0001 C CNN
F 3 "https://www.chipdip.ru/product/sk16-diotec" H 4050 5250 50  0001 C CNN
	1    4050 5250
	-1   0    0    1   
$EndComp
$Comp
L Device:L L1
U 1 1 5B1D3600
P 3000 5250
F 0 "L1" V 3190 5250 50  0000 C CNN
F 1 "6.8uH" V 3099 5250 50  0000 C CNN
F 2 "Project:L_Bourns_SRR0618" H 3000 5250 50  0001 C CNN
F 3 "https://www.chipdip.ru/product/srr0618-6r8m" H 3000 5250 50  0001 C CNN
	1    3000 5250
	0    -1   -1   0   
$EndComp
Wire Wire Line
	3150 5250 3750 5250
Wire Wire Line
	1700 5250 1700 5800
Wire Wire Line
	3750 5250 3750 5650
Connection ~ 3750 5250
Wire Wire Line
	2200 6550 2200 6100
$Comp
L Device:R R_FB1
U 1 1 5B1D45B2
P 4950 6250
F 0 "R_FB1" H 4880 6204 50  0000 R CNN
F 1 "150k" H 4880 6295 50  0000 R CNN
F 2 "Resistor_SMD:R_0805_2012Metric_Pad1.29x1.40mm_HandSolder" V 4880 6250 50  0001 C CNN
F 3 "https://www.chipdip.ru/product0/9000079542" H 4950 6250 50  0001 C CNN
	1    4950 6250
	-1   0    0    1   
$EndComp
Wire Wire Line
	4950 6400 4950 6550
$Comp
L Device:R R_FQ1
U 1 1 5B1D5318
P 2000 5950
F 0 "R_FQ1" V 1900 5950 50  0000 C CNN
F 1 "75k" V 1800 5950 50  0000 C CNN
F 2 "Resistor_SMD:R_0805_2012Metric_Pad1.29x1.40mm_HandSolder" V 1930 5950 50  0001 C CNN
F 3 "https://www.chipdip.ru/product0/9000079535" H 2000 5950 50  0001 C CNN
	1    2000 5950
	0    -1   -1   0   
$EndComp
$Comp
L Device:R R_FB2
U 1 1 5B1D7A63
P 4950 6850
F 0 "R_FB2" H 4880 6804 50  0000 R CNN
F 1 "18k" H 4880 6895 50  0000 R CNN
F 2 "Resistor_SMD:R_0805_2012Metric_Pad1.29x1.40mm_HandSolder" V 4880 6850 50  0001 C CNN
F 3 "https://www.chipdip.ru/product0/9000079520" H 4950 6850 50  0001 C CNN
	1    4950 6850
	-1   0    0    1   
$EndComp
Wire Wire Line
	4950 6550 4950 6700
Connection ~ 4950 6550
Wire Wire Line
	4950 7000 4950 7150
$Comp
L Device:C C_FB1
U 1 1 5B1D84B2
P 4700 6250
F 0 "C_FB1" H 4600 6300 50  0000 R CNN
F 1 "39pF" H 4600 6200 50  0000 R CNN
F 2 "Capacitor_SMD:C_0603_1608Metric_Pad0.99x1.00mm_HandSolder" H 4700 6250 50  0001 C CNN
F 3 "https://www.chipdip.ru/product/grm1885c1h390j" H 4700 6250 50  0001 C CNN
	1    4700 6250
	1    0    0    -1  
$EndComp
$Comp
L power:GND #PWR0104
U 1 1 5B1D9E31
P 4050 6250
F 0 "#PWR0104" H 4050 6000 50  0001 C CNN
F 1 "GND" H 4055 6077 50  0000 C CNN
F 2 "" H 4050 6250 50  0001 C CNN
F 3 "" H 4050 6250 50  0001 C CNN
	1    4050 6250
	1    0    0    -1  
$EndComp
$Comp
L power:GND #PWR0105
U 1 1 5B1DA332
P 4950 7150
F 0 "#PWR0105" H 4950 6900 50  0001 C CNN
F 1 "GND" H 4955 6977 50  0000 C CNN
F 2 "" H 4950 7150 50  0001 C CNN
F 3 "" H 4950 7150 50  0001 C CNN
	1    4950 7150
	1    0    0    -1  
$EndComp
Wire Wire Line
	1300 5650 1300 5800
Wire Wire Line
	1700 5250 1300 5250
Connection ~ 1700 5250
$Comp
L power:+BATT #PWR0106
U 1 1 5B1DC312
P 4050 5700
F 0 "#PWR0106" H 4050 5550 50  0001 C CNN
F 1 "+BATT" H 4065 5873 50  0000 C CNN
F 2 "" H 4050 5700 50  0001 C CNN
F 3 "" H 4050 5700 50  0001 C CNN
	1    4050 5700
	1    0    0    -1  
$EndComp
Text Notes 1050 5225 0    50   ~ 0
3.7V
$Comp
L Device:CP1 C_IN1
U 1 1 5B1DD90D
P 2000 5450
F 0 "C_IN1" H 2115 5496 50  0000 L CNN
F 1 "22uF" H 2115 5405 50  0000 L CNN
F 2 "Capacitor_Tantalum_SMD:CP_EIA-3528-21_Kemet-B_Pad1.63x2.40mm_HandSolder" H 2000 5450 50  0001 C CNN
F 3 "https://www.chipdip.ru/product0/9000415957" H 2000 5450 50  0001 C CNN
	1    2000 5450
	1    0    0    -1  
$EndComp
$Comp
L Device:CP1 C_OUT1
U 1 1 5B1DE337
P 4350 5650
F 0 "C_OUT1" H 4465 5696 50  0000 L CNN
F 1 "68uF" H 4465 5605 50  0000 L CNN
F 2 "Capacitor_Tantalum_SMD:CP_EIA-7343-31_Kemet-D_Pad2.23x2.60mm_HandSolder" H 4350 5650 50  0001 C CNN
F 3 "https://www.chipdip.ru/product0/979125339" H 4350 5650 50  0001 C CNN
	1    4350 5650
	1    0    0    -1  
$EndComp
Wire Wire Line
	3750 5250 3900 5250
Wire Wire Line
	4200 5250 4350 5250
Wire Wire Line
	4350 5250 4350 5500
Connection ~ 4350 5250
Wire Wire Line
	4950 4825 4950 5250
Connection ~ 4950 5250
Wire Wire Line
	2200 6550 4700 6550
Wire Wire Line
	4950 5250 4950 5900
Wire Wire Line
	4700 6400 4700 6550
Connection ~ 4700 6550
Wire Wire Line
	4700 6550 4950 6550
Wire Wire Line
	4050 6250 4050 6100
Connection ~ 4050 6100
Wire Wire Line
	4350 5250 4950 5250
Wire Wire Line
	4700 6100 4700 5900
Wire Wire Line
	4700 5900 4950 5900
Connection ~ 4950 5900
Wire Wire Line
	4950 5900 4950 6100
Wire Wire Line
	4350 6100 4350 5800
Wire Wire Line
	4050 6100 4350 6100
Wire Wire Line
	4050 5950 4050 5800
Wire Wire Line
	1700 5800 1700 5950
Wire Wire Line
	1700 5950 1850 5950
Connection ~ 1700 5800
Wire Wire Line
	1300 5650 2000 5650
Wire Wire Line
	1700 5250 2000 5250
Wire Wire Line
	2000 5300 2000 5250
Connection ~ 2000 5250
Wire Wire Line
	2000 5250 2850 5250
Wire Wire Line
	2000 5600 2000 5650
Connection ~ 2000 5650
Connection ~ 4050 5800
Wire Wire Line
	4050 5800 4050 5700
$Comp
L MCU_Microchip_ATtiny:ATtiny13A-SSU U2
U 1 1 5B1D7B22
P 1725 1700
F 0 "U2" H 1625 1850 50  0000 C CNN
F 1 "ATtiny13A-SSU" H 1625 1700 50  0000 C CNN
F 2 "Package_SO:SO-8_5.3x6.2mm_P1.27mm" H 1725 1700 50  0001 C CIN
F 3 "http://ww1.microchip.com/downloads/en/DeviceDoc/doc8126.pdf" H 1725 1700 50  0001 C CNN
	1    1725 1700
	1    0    0    -1  
$EndComp
Wire Wire Line
	2325 1400 2575 1400
Wire Wire Line
	2325 1500 2575 1500
Wire Wire Line
	2575 1600 2325 1600
Text Label 3400 5250 0    50   ~ 0
SW
Text Label 2750 6550 0    50   ~ 0
FEEDBACK
$Comp
L Device:R R1
U 1 1 5B1F32DA
P 3250 1900
F 0 "R1" V 3043 1900 50  0000 C CNN
F 1 "1k" V 3134 1900 50  0000 C CNN
F 2 "Resistor_SMD:R_0805_2012Metric_Pad1.29x1.40mm_HandSolder" V 3180 1900 50  0001 C CNN
F 3 "https://www.chipdip.ru/product0/9000079486" H 3250 1900 50  0001 C CNN
	1    3250 1900
	0    -1   1    0   
$EndComp
$Comp
L Connector:Conn_01x02_Female J1
U 1 1 5B1F4ED6
P 950 5500
F 0 "J1" H 850 5575 50  0000 C CNN
F 1 "LiPo" H 850 5675 50  0000 C CNN
F 2 "Connector_PinHeader_1.27mm:PinHeader_1x02_P1.27mm_Horizontal" H 950 5500 50  0001 C CNN
F 3 "~" H 950 5500 50  0001 C CNN
	1    950  5500
	-1   0    0    1   
$EndComp
Wire Wire Line
	1150 5400 1300 5400
Wire Wire Line
	1300 5400 1300 5250
Connection ~ 1300 5250
Wire Wire Line
	1150 5500 1300 5500
Wire Wire Line
	1300 5500 1300 5650
Connection ~ 1300 5650
$Comp
L power:+12V #PWR0107
U 1 1 5B20097E
P 7175 5400
F 0 "#PWR0107" H 7175 5250 50  0001 C CNN
F 1 "+12V" H 7190 5573 50  0000 C CNN
F 2 "" H 7175 5400 50  0001 C CNN
F 3 "" H 7175 5400 50  0001 C CNN
	1    7175 5400
	1    0    0    -1  
$EndComp
Text GLabel 7175 5800 0    50   Input ~ 0
RED
Text GLabel 7175 5900 0    50   Input ~ 0
BLUE
Text GLabel 7175 5700 0    50   Input ~ 0
GREEN
$Comp
L power:GND #PWR0108
U 1 1 5B205846
P 3450 4050
F 0 "#PWR0108" H 3450 3800 50  0001 C CNN
F 1 "GND" H 3455 3877 50  0000 C CNN
F 2 "" H 3450 4050 50  0001 C CNN
F 3 "" H 3450 4050 50  0001 C CNN
	1    3450 4050
	1    0    0    -1  
$EndComp
Wire Wire Line
	7175 5700 7325 5700
Wire Wire Line
	7325 5800 7175 5800
Wire Wire Line
	7175 5900 7325 5900
Text GLabel 7175 5600 0    50   Input ~ 0
BUTTON
Wire Wire Line
	7175 5600 7325 5600
Text GLabel 4100 3450 2    50   Input ~ 0
MISO
Text GLabel 4100 3550 2    50   Input ~ 0
MOSI
Text GLabel 4100 3650 2    50   Input ~ 0
SCK
Text GLabel 4100 3750 2    50   Input ~ 0
RST
Wire Wire Line
	4100 3450 3950 3450
Wire Wire Line
	3950 3550 4100 3550
Wire Wire Line
	4100 3650 3950 3650
Wire Wire Line
	3950 3750 4100 3750
$Comp
L power:VCC #PWR0110
U 1 1 5B25E3CA
P 2325 4825
F 0 "#PWR0110" H 2325 4675 50  0001 C CNN
F 1 "VCC" H 2342 4998 50  0000 C CNN
F 2 "" H 2325 4825 50  0001 C CNN
F 3 "" H 2325 4825 50  0001 C CNN
	1    2325 4825
	1    0    0    -1  
$EndComp
Text GLabel 2575 1600 2    50   Input ~ 0
SCK
Text GLabel 2575 1500 2    50   Input ~ 0
MISO
Text GLabel 2575 1400 2    50   Input ~ 0
MOSI
Text GLabel 2575 1700 2    50   Input ~ 0
BUTTON
Wire Wire Line
	2575 1700 2325 1700
Text GLabel 6800 4000 0    50   Input ~ 0
SCK
Text GLabel 6800 2650 0    50   Input ~ 0
MISO
Text GLabel 6800 1300 0    50   Input ~ 0
MOSI
$Comp
L Device:Q_NMOS_GSD Q1
U 1 1 5B292A0D
P 7425 1300
F 0 "Q1" H 7631 1346 50  0000 L CNN
F 1 "FDV303N" H 7631 1255 50  0000 L CNN
F 2 "Package_TO_SOT_SMD:SOT-23" H 7625 1400 50  0001 C CNN
F 3 "https://www.chipdip.ru/product/fdv303n" H 7425 1300 50  0001 C CNN
	1    7425 1300
	1    0    0    -1  
$EndComp
Text GLabel 7875 2250 2    50   Input ~ 0
RED
$Comp
L power:GND #PWR0113
U 1 1 5B1DFED0
P 7525 1700
F 0 "#PWR0113" H 7525 1450 50  0001 C CNN
F 1 "GND" H 7530 1527 50  0000 C CNN
F 2 "" H 7525 1700 50  0001 C CNN
F 3 "" H 7525 1700 50  0001 C CNN
	1    7525 1700
	1    0    0    -1  
$EndComp
Wire Wire Line
	7525 1700 7525 1500
Wire Wire Line
	7875 900  7525 900 
Wire Wire Line
	7525 900  7525 1100
Text Notes 6825 1475 0    50   ~ 0
V_GS=3.7V
Text Notes 7625 1075 0    50   ~ 0
I_D=200mA
Text Notes 5300 6900 0    50   ~ 0
18k -> 11.57V\n16k -> 12.87V
$Comp
L Connector:AVR-ISP-6 J2
U 1 1 5B1EA51A
P 3550 3650
F 0 "J2" H 3270 3746 50  0000 R CNN
F 1 "AVR-ISP-6" H 3270 3655 50  0000 R CNN
F 2 "Connector_PinHeader_1.27mm:PinHeader_1x06_P1.27mm_Horizontal" V 3300 3700 50  0001 C CNN
F 3 "~" H 2275 3100 50  0001 C CNN
	1    3550 3650
	1    0    0    -1  
$EndComp
$Comp
L power:GND #PWR0114
U 1 1 5B1D8743
P 1725 2300
F 0 "#PWR0114" H 1725 2050 50  0001 C CNN
F 1 "GND" H 1730 2127 50  0000 C CNN
F 2 "" H 1725 2300 50  0001 C CNN
F 3 "" H 1725 2300 50  0001 C CNN
	1    1725 2300
	1    0    0    -1  
$EndComp
$Comp
L Connector:Conn_01x05_Female J3
U 1 1 5B21432E
P 7525 5700
F 0 "J3" H 7552 5726 50  0000 L CNN
F 1 "INTERFACE" H 7552 5635 50  0000 L CNN
F 2 "Connector_PinHeader_1.27mm:PinHeader_1x05_P1.27mm_Horizontal" H 7525 5700 50  0001 C CNN
F 3 "~" H 7525 5700 50  0001 C CNN
	1    7525 5700
	1    0    0    1   
$EndComp
Wire Wire Line
	7175 5400 7175 5500
Wire Wire Line
	7175 5500 7325 5500
$Comp
L Device:Q_NMOS_GSD Q2
U 1 1 5B2280C8
P 7425 2650
F 0 "Q2" H 7631 2696 50  0000 L CNN
F 1 "FDV303N" H 7631 2605 50  0000 L CNN
F 2 "Package_TO_SOT_SMD:SOT-23" H 7625 2750 50  0001 C CNN
F 3 "https://www.chipdip.ru/product/fdv303n" H 7425 2650 50  0001 C CNN
	1    7425 2650
	1    0    0    -1  
$EndComp
$Comp
L power:GND #PWR0115
U 1 1 5B2280CF
P 7525 3050
F 0 "#PWR0115" H 7525 2800 50  0001 C CNN
F 1 "GND" H 7530 2877 50  0000 C CNN
F 2 "" H 7525 3050 50  0001 C CNN
F 3 "" H 7525 3050 50  0001 C CNN
	1    7525 3050
	1    0    0    -1  
$EndComp
Wire Wire Line
	7525 3050 7525 2850
Wire Wire Line
	7875 2250 7525 2250
Wire Wire Line
	7525 2250 7525 2450
Text GLabel 7875 900  2    50   Input ~ 0
GREEN
$Comp
L Device:Q_NMOS_GSD Q3
U 1 1 5B229E20
P 7425 4000
F 0 "Q3" H 7631 4046 50  0000 L CNN
F 1 "FDV303N" H 7631 3955 50  0000 L CNN
F 2 "Package_TO_SOT_SMD:SOT-23" H 7625 4100 50  0001 C CNN
F 3 "https://www.chipdip.ru/product/fdv303n" H 7425 4000 50  0001 C CNN
	1    7425 4000
	1    0    0    -1  
$EndComp
$Comp
L power:GND #PWR0116
U 1 1 5B229E26
P 7525 4400
F 0 "#PWR0116" H 7525 4150 50  0001 C CNN
F 1 "GND" H 7530 4227 50  0000 C CNN
F 2 "" H 7525 4400 50  0001 C CNN
F 3 "" H 7525 4400 50  0001 C CNN
	1    7525 4400
	1    0    0    -1  
$EndComp
Wire Wire Line
	7525 4400 7525 4200
Wire Wire Line
	7875 3600 7525 3600
Wire Wire Line
	7525 3600 7525 3800
Text GLabel 7875 3600 2    50   Input ~ 0
BLUE
$Comp
L Connector:Test_Point TP1
U 1 1 5B23A10A
P 3000 1350
F 0 "TP1" H 3058 1470 50  0000 L CNN
F 1 "PB4" H 3058 1379 50  0000 L CNN
F 2 "TestPoint:TestPoint_Pad_D1.0mm" H 3200 1350 50  0001 C CNN
F 3 "~" H 3200 1350 50  0001 C CNN
	1    3000 1350
	1    0    0    -1  
$EndComp
Wire Wire Line
	2000 5650 2650 5650
Wire Wire Line
	1700 5800 2650 5800
Wire Wire Line
	2150 5950 2650 5950
Wire Wire Line
	2200 6100 2650 6100
Wire Wire Line
	3350 6100 4050 6100
Wire Wire Line
	3350 5950 4050 5950
Wire Wire Line
	3350 5800 4050 5800
Wire Wire Line
	3350 5650 3750 5650
Wire Wire Line
	2325 1800 3000 1800
Text Label 6875 2650 0    50   ~ 0
RED_CTL
Wire Wire Line
	6800 1300 7225 1300
Text Label 6875 1300 0    50   ~ 0
GREEN_CTL
Wire Wire Line
	6800 4000 7225 4000
Text Label 6900 4000 0    50   ~ 0
BLUE_CTL
Wire Wire Line
	3000 1800 3000 1350
Wire Wire Line
	1725 1000 1725 1100
Wire Wire Line
	2325 1900 3100 1900
Text Label 2575 1900 0    50   ~ 0
RST
$Comp
L Device:D D2
U 1 1 5B3ABA81
P 1850 5025
F 0 "D2" H 1850 4925 50  0000 C CNN
F 1 "DIODE" H 1850 4925 50  0001 C CNN
F 2 "Diode_SMD:D_SMA" H 1850 5025 50  0001 C CNN
F 3 "https://www.chipdip.ru/product/m1-diod" H 1850 5025 50  0001 C CNN
	1    1850 5025
	-1   0    0    1   
$EndComp
Wire Wire Line
	7225 2650 6800 2650
Wire Wire Line
	1300 4825 1300 5025
Wire Wire Line
	1300 5025 1700 5025
Connection ~ 1300 5025
Wire Wire Line
	1300 5025 1300 5250
Wire Wire Line
	2325 4825 2325 5025
Wire Wire Line
	2325 5025 2000 5025
$Comp
L power:VCC #PWR0109
U 1 1 5B425F71
P 1725 1000
F 0 "#PWR0109" H 1725 850 50  0001 C CNN
F 1 "VCC" H 1742 1173 50  0000 C CNN
F 2 "" H 1725 1000 50  0001 C CNN
F 3 "" H 1725 1000 50  0001 C CNN
	1    1725 1000
	1    0    0    -1  
$EndComp
$Comp
L power:VCC #PWR0111
U 1 1 5B426086
P 3450 3050
F 0 "#PWR0111" H 3450 2900 50  0001 C CNN
F 1 "VCC" H 3467 3223 50  0000 C CNN
F 2 "" H 3450 3050 50  0001 C CNN
F 3 "" H 3450 3050 50  0001 C CNN
	1    3450 3050
	1    0    0    -1  
$EndComp
Wire Wire Line
	3450 3050 3450 3150
$Comp
L power:VCC #PWR0112
U 1 1 5B42C1B9
P 3500 1625
F 0 "#PWR0112" H 3500 1475 50  0001 C CNN
F 1 "VCC" H 3517 1798 50  0000 C CNN
F 2 "" H 3500 1625 50  0001 C CNN
F 3 "" H 3500 1625 50  0001 C CNN
	1    3500 1625
	1    0    0    -1  
$EndComp
Wire Wire Line
	3500 1625 3500 1900
Wire Wire Line
	3500 1900 3400 1900
$EndSCHEMATC
